…
pred_mars = predict(mod_mars, newdata = test_df, type = "prob")[,1]
pred_boost = predict(mod_boost, newdata = test_df, type = "prob")[,1]
diff_df = 
  tibble(pred_boost, pred_mars) %>% 
  mutate(
    boost_surv = ifelse(pred_boost > 0.5, "Y", "N"), 
    mars_surv = ifelse(pred_mars > 0.5, "Y", "N"), 
    diff = ifelse(boost_surv == mars_surv, "Y", "N"))
diff_df %>% 
  filter(diff == "N")
```

    ## # A tibble: 34 x 5
    ##    pred_boost pred_mars boost_surv mars_surv diff 
    ##         <dbl>     <dbl> <chr>      <chr>     <chr>
    ##  1      0.889    0.349  Y          N         N    
    ##  2      0.667    0.375  Y          N         N    
    ##  3      0.814    0.358  Y          N         N    
    ##  4      0.592    0.0708 Y          N         N    
    ##  5      0.493    0.574  N          Y         N    
    ##  6      0.449    0.739  N          Y         N    
    ##  7      0.353    0.574  N          Y         N    
    ##  8      0.755    0.420  Y          N         N    
    ##  9      0.215    0.505  N          Y         N    
    ## 10      0.631    0.296  Y          N         N    
    ## # ... with 24 more rows
